nombre|fecha_nacimiento|sexo|encuesta|carto_mpio_id
omar noé bernardino|25-10-1979|m|30|2
sergio ochoa vazquez|25-02-1968|m|30|6
maría guadalupe hernández arias|12-12-1973|f|30|6
julia lila ceja canela|07-01-1968|f|30|6
césar chavez garibay|24-12-1979|m|30|6
agustín torres sandoval|28-08-1974|m|30|7
mario silva amezcua|13-05-1966|m|30|17
rosa maría molina rojas|20-02-1966|f|30|17
raquel ochoa gonzález|11-03-1987|f|30|23
agustin bautista espinoza|19-07-1966|m|30|23
felipe de jesús contreras correa|09-12-1982|m|30|25
rubén rodríguez jiménez|30-10-1978|m|30|25
ana leticia vázquez murillo|25-05-1983|f|30|29
ana karina lópez espino|03-02-1983|f|30|33
paloma elizabeth martínez palomares|19-04-1984|f|30|33
edith mariela contreras gonzález|15-01-1985|f|30|33
rubén padilla soto|20-08-1970|m|30|33
alfonso mendez chavez|27-01-1970|m|30|33
cuitláhuac santos sierra|28-10-1961|m|30|36
santiago macedo benitez|22-07-1962|m|30|36
josé humberto garcía domínguez|31-08-1984|m|30|37
adriana campos huirache|01-12-1978|f|30|41
eva maría pimentel|24-08-1984|f|30|41
alicia ojeda pérez|03-09-1960|f|30|48
juan manuel estrada medina|24-09-1957|m|30|48
eloisa berber zermeño|04-09-1961|f|30|50
armando carrillo barragan|26-04-1964|m|30|50
evelio segura díaz|26-05-1987|m|30|50
waltnner russel córdoba moreno|21-07-1981|m|30|50
sindy orozco orozco|12-04-1986|f|30|50
guillermo lopez villalobos|25-06-1969|m|30|50
víctor silva tejeda|02-04-1956|m|30|51
antonio ramirez monroy|11-04-1952|m|30|53
ana maría arreaga hernández|30-03-1965|f|30|53
fernando emmanuel rangel gonzalez|06-01-1996|m|30|53
octavio vergara mora|05-09-1967|m|30|53
yarabi ávila gonzález|29-05-1978|f|30|55
yanitzi palomo calderon|07-10-1983|f|30|55
josé humberto martínez morales|18-08-1987|m|30|55
juan josé marín gonzález|28-10-1967|m|30|55
gerónimo colos gasca|13-11-1973|m|30|55
xóchilt gabriela ruiz gonzález|15-04-1987|f|30|55
eligio cuitláhuac gonzález farias|22-07-1977|m|30|55
rosalba venegas garduño|09-09-1974|f|30|55
olivio lópez múgica|21-05-1979|m|30|55
daniela de los santos torres|28-02-1983|f|30|55
mónica berenice sánchez cachú|13-03-1976|f|30|55
marco polo aguirre chávez|21-12-1979|m|30|55
claudia leticia lazaro medina|11-07-1971|f|30|55
mauro ramón ballesteros|25-06-1953|m|30|55
roberto maldonado hinojosa|09-01-1979|m|30|55
alejandra lizet sánchez espinoza|18-05-1979|f|30|55
constantino ortiz garcia|07-09-1968|m|30|55
roberto carlos lópez|06-10-1973|m|30|55
román acosta rosales|01-01-1962|m|30|55
marbella romero núñez|06-04-1976|f|30|55
katia ortiz ávila|22-11-1977|f|30|55
yurihxi navarro gonzález|19-08-1994|f|30|57
raymundo arreola ortega|03-03-1959|m|30|57
nicolás gonzález gómez|23-01-1968|f|30|59
jorge antonio gonzalez escalera|13-06-1973|m|30|67
edgar esau hernández arreola|23-02-1985|m|30|67
itzia yuritzi perez vega|15-11-1974|f|30|67
victor manuel vázquez tapia|02-08-1979|m|30|72
nayeli ramírez chavanna|21-08-1973|f|30|72
josé bertín cornejo martínez|04-10-1978|m|30|73
melchor vargas villicaña|12-02-1975|m|30|74
alfredo anaya orozco|01-09-1981|m|30|76
blanca villaseñor gudiño|28-09-1963|f|30|76
maría fernanda higareda sánchez|07-07-1990|f|30|76
maría de jesús lópez parra|21-10-1972|f|30|79
antonio sosa lópez|15-12-1970|m|30|79
humberto rivera sesmas|11-08-1979|m|30|81
salvador bastida garcía|31-07-1970|m|30|82
gabriel prado fernández|09-11-1966|m|30|83
marta lucrecia arroyo sandoval|16-08-1979|f|30|84
martha patricia medina garigay|27-07-1962|f|30|88
lilia acosta rosales|17-05-1981|f|30|88
dagoberto silva silahua|01-07-1962|m|30|88
aldo macías alejandre|25-02-1957|m|30|89
guillermo valencia reyes|01-10-1980|m|30|89
osvaldo fernández orozco|22-07-1961|m|30|95
arsenio hernández gama|21-09-1986|m|30|100
miguel ildelfonso mares chapa|09-01-1965|m|30|102
selene gómez barragan|27-12-1980|f|30|102
rigel macías andrade|12-05-1967|m|30|102
pedro ivan plancarte molina|19-04-1980|m|30|102
socorro de la luz quintana|23-12-1962|f|30|102
diana gabriela hernández lomelí|12-02-1985|f|30|102
gerardo acevedo ravelo|22-03-1974|m|30|104
miguel alejandro jímenez granados|13-10-1961|m|30|107
victor josé gonzalez mariscal|08-10-1978|m|30|107
luisa erandeni cruz tellez|28-04-1986|f|30|107
mario magaña juárez|09-07-1959|m|30|107
sergio flores luna|08-05-1987|m|30|108
paulina diaz licona|31-10-1977|f|30|108
ruben nuño davila|05-11-1974|m|30|108
carolina hernández ortiz|14-03-1976|f|30|108
jose carlos lugo godínez|16-07-1959|m|30|108
rosa berenice lópez guizar|19-09-1973|f|30|108
maría de refugio silva durán|02-03-1983|f|30|110
leopoldo martinez morales|14-02-1968|m|30|112
aldo gabriel argueta martinez|08-03-1983|m|30|112
sonia angélica rivas espitia|20-08-1961|f|30|112
catalina arguello flores|21-03-1980|f|30|112
amado contreras ramirez|10-10-1979|m|30|112
salomón fernando rosales|21-12-1958|m|30|47
josé ventura sánchez silva|13-05-1995|m|30|113
